module gitlab.com/DanielFrag/kafka-utils

go 1.18

require (
	github.com/confluentinc/confluent-kafka-go v1.9.2
	github.com/riferrei/srclient v0.5.4
	github.com/santhosh-tekuri/jsonschema/v5 v5.0.1
)

require (
	github.com/golang/snappy v0.0.4 // indirect
	github.com/linkedin/goavro/v2 v2.11.1 // indirect
	golang.org/x/sync v0.0.0-20210220032951-036812b2e83c // indirect
)
